{
	"documentation": [
		{
			"title": "global overview",
			"page": "doc/doc_01_overview.md"
		},{
			"title": "contribution guideline",
			"page": "doc/contribution_guideline.md"
		}
	],
	"tutorial": [
		{
			"title": "First run",
			"page": "doc/tutorial_01_first_run.md"
		},{
			"title": "Dynamic parameter",
			"page": "doc/tutorial_02_dynamic_parameter.md"
		},{
			"title": "Read Video and process data",
			"page": "doc/tutorial_03_video_processing.md"
		},{
			"title": "Record and replay",
			"page": "doc/tutorial_04_replay.md"
		},{
			"title": "Create a plug-in library",
			"page": "doc/tutorial_05_create_a_library_to_create_your_operators.md"
		},{
			"title": "Write an Operator",
			"page": "doc/tutorial_06_write_a_new_block.md"
		},{
			"title": "JNI Bridge",
			"page": "doc/tutorial_07_JNI_bridge.md"
		}
	]
}